{
    "name": "syscom-trend",
    "title": "Syscom Trend",
    "queryfile": "sr-syscom-trend.js",
    "show": true,
    "configfile": "config",
    "view": "simple-line",
    "img": "fi-graph-trend",
    "connectionname": "json-test",
    "sort": "",
    "tags": [
        "syscom",
        "trend"
    ]
}