{
    "name": "pureservice-trend",
    "title": "Pureservice Trend",
    "queryfile": "sr-pureservice-trend.js",
    "show": true,
    "configfile": "config",
    "view": "simple-line",
    "img": "fi-graph-trend",
    "connectionname": "json-test",
    "sort": "",
    "tags": [
        "pureservice",
        "trend"
    ]
}